…
I will familiarize myself with the dataset by glancing at
`original_price`. I will start by sorting the column from highest to
lowest. From this, I can see that the two highest games cost \$730,640
and \$650,560. They are likely outliers and will be removed.

``` r
#original_price highest to lowest
steam_games %>%
  select(name, original_price) %>%
  arrange(desc(original_price))
```

    ## # A tibble: 40,833 × 2
    ##    name                                            original_price
    ##    <chr>                                                    <dbl>
    ##  1 Railgunners                                            730640 
    ##  2 Slime-san: Superslime Edition                          650560 
    ##  3 Valve Index VR Kit                                        999 
    ##  4 Strata Spaces VR – Professional Edition Upgrade           995 
    ##  5 Valve Index Headset + Controllers                         749 
    ##  6 Crankies Workshop: Bozzbot Assembly                       625.
    ##  7 Crankies Workshop: Grizzbot Assembly                      625.
    ##  8 Fitzzle Wise Owls                                         625.
    ##  9 Digit Daze                                                625.
    ## 10 Fitzzle Majestic Eagles                                   625.
    ## # ℹ 40,823 more rows
<br>

I will now sort `original_price` from lowest to highest. From this, I
can see that many games are actually free. For the purpose of
demonstrating the `max_minus_min()` function, I will remove the free
games.

``` r
#original_price lowest to highest
steam_games %>%
  select(name, original_price) %>%
  arrange(original_price)
```

    ## # A tibble: 40,833 × 2
    ##    name                          original_price
    ##    <chr>                                  <dbl>
    ##  1 EVE Online                                 0
    ##  2 TERA                                       0
    ##  3 War Robots                                 0
    ##  4 Tree of Savior (English Ver.)              0
    ##  5 Wizard101                                  0
    ##  6 Middle-earth™: Shadow of War™              0
    ##  7 The Lord of the Rings Online™              0
    ##  8 The Elder Scrolls®: Legends™               0
    ##  9 Realm Royale                               0
    ## 10 Dungeons & Dragons Online®                 0
    ## # ℹ 40,823 more rows
…
<br>

**Example 3**: I will calculate the max minus min difference in the
achievement number. I will familiarize myself with the dataset by
examining the column, `achievements`. From this, I can see that the
highest achievement number is 9821.

``` r
#achievements highest to lowest
steam_games %>%
  select(name, achievements) %>%
  arrange(desc(achievements))
```

    ## # A tibble: 40,833 × 2
    ##    name                              achievements
    ##    <chr>                                    <dbl>
    ##  1 LOGistICAL                                9821
    ##  2 Achievement Machine                       5000
    ##  3 USA 2020                                  5000
    ##  4 Math Problem Challenge                    5000
    ##  5 Trash Story                               5000
    ##  6 Trivia Vault Olympics Trivia              5000
    ##  7 Math Speed Challenge                      5000
    ##  8 18+                                       5000
    ##  9 Trivia Vault: Classic Rock Trivia         5000
    ## 10 Solar Battle Glargaz                      5000
    ## # ℹ 40,823 more rows

<br>

I will now sort `achievements` from lowest to highest. From this, I can
see that the lowest achievement number is 1.

``` r
#achievements lowest to highest
steam_games %>%
  select(name, achievements) %>%
  arrange(achievements)
```

    ## # A tibble: 40,833 × 2
    ##    name                                 achievements
    ##    <chr>                                       <dbl>
    ##  1 Hot Dogs, Horseshoes & Hand Grenades            1
    ##  2 To the Moon                                     1
    ##  3 Devil Daggers                                   1
    ##  4 SUPERHOT: MIND CONTROL DELETE                   1
    ##  5 Ymir                                            1
    ##  6 Finding Paradise                                1
    ##  7 Borderless Gaming                               1
    ##  8 Get To The Orange Door                          1
    ##  9 Feather                                         1
    ## 10 A Bird Story                                    1
    ## # ℹ 40,823 more rows
…
